<svg xmlns="http://www.w3.org/2000/svg" viewBox="0 0 68.09 52.95">
    <title>Home icon</title>
    <g data-name="Home">
        <path class="home" d="M33.14,13.74l-21.79,18V51.06A1.89,1.89,0,0,0,13.24,53l13.25,0A1.89,1.89,0,0,0,28.37,51V39.71a1.89,1.89,0,0,1,1.89-1.89h7.57a1.89,1.89,0,0,1,1.89,1.89V51a1.89,1.89,0,0,0,1.88,1.9h0l13.24,0a1.88,1.88,0,0,0,1.89-1.89V31.67L35,13.74a1.43,1.43,0,0,0-1.81,0Zm34.43,12.2-9.88-8.15V1.42A1.43,1.43,0,0,0,56.27,0H49.65a1.43,1.43,0,0,0-1.42,1.42V10L37.65,1.29a5.68,5.68,0,0,0-7.21,0L.51,25.94a1.41,1.41,0,0,0-.18,2h0l3,3.66a1.42,1.42,0,0,0,2,.19h0l27.8-22.9a1.46,1.46,0,0,1,1.81,0l27.81,22.9a1.42,1.42,0,0,0,2-.19h0l3-3.66a1.42,1.42,0,0,0-.19-2Z"/>
    </g>
</svg>